LAB06/simulation/qsim/LAB_06.msim.vcd
$comment
	File created using the following command:
		vcd file LAB_06.msim.vcd -direction
$end
$date
	Fri Nov 18 11:58:39 2022
$end
$version
	ModelSim Version 10.1d
$end
$timescale
	1ps
$end
$scope module LAB_06_vlg_vec_tst $end
$var reg 1 ! CLK $end
$var reg 4 " data [3:0] $end
$var reg 1 # ld $end
$var reg 1 $ reset $end
$var wire 1 % q [3] $end
$var wire 1 & q [2] $end
$var wire 1 ' q [1] $end
$var wire 1 ( q [0] $end
$var wire 1 ) tc $end
$var wire 1 * sampler $end
$scope module i1 $end
$var wire 1 + gnd $end
$var wire 1 , vcc $end
$var wire 1 - unknown $end
$var tri1 1 . devclrn $end
$var tri1 1 / devpor $end
$var tri1 1 0 devoe $end
$var wire 1 1 tc~output_o $end
$var wire 1 2 q[0]~output_o $end
$var wire 1 3 q[1]~output_o $end
$var wire 1 4 q[2]~output_o $end
$var wire 1 5 q[3]~output_o $end
$var wire 1 6 CLK~input_o $end
$var wire 1 7 data[1]~input_o $end
$var wire 1 8 ld~input_o $end
$var wire 1 9 data[0]~input_o $end
$var wire 1 : qsignal~0_combout $end
$var wire 1 ; reset~input_o $end
$var wire 1 < Add0~0_combout $end
$var wire 1 = data[2]~input_o $end
$var wire 1 > Add0~1_combout $end
$var wire 1 ? qsignal~2_combout $end
$var wire 1 @ data[3]~input_o $end
$var wire 1 A Add0~2_combout $end
$var wire 1 B qsignal~3_combout $end
$var wire 1 C LessThan0~0_combout $end
$var wire 1 D qsignal~1_combout $end
$var wire 1 E tc~0_combout $end
$var wire 1 F tc~1_combout $end
$var wire 1 G tc~reg0_q $end
$var wire 1 H qsignal [3] $end
$var wire 1 I qsignal [2] $end
$var wire 1 J qsignal [1] $end
$var wire 1 K qsignal [0] $end
$upscope $end
$upscope $end
$enddefinitions $end
#0
$dumpvars
0!
b0 "
0#
0$
0(
0'
0&
0%
0)
x*
0+
1,
x-
1.
1/
10
01
02
03
04
05
06
07
08
09
1:
0;
0<
0=
0>
0?
0@
0A
0B
0C
0D
0E
0F
0G
0K
0J
0I
0H
$end
#25000
1!
16
0*
1K
1<
0:
12
1(
1D
#50000
0!
06
1*
#75000
1!
16
0*
1J
0K
1:
13
02
1'
0(
#100000
0!
06
1*
#125000
1!
16
0*
1K
1>
0<
0:
12
1(
1?
0D
#150000
0!
06
1*
#175000
1!
16
0*
0J
1I
0K
1:
03
14
02
0'
1&
0(
#200000
0!
06
1*
#225000
1!
16
0*
1K
1<
0:
12
1(
1D
#250000
0!
06
1*
#275000
1!
16
0*
1J
0K
1:
13
02
1'
0(
#300000
0!
06
1*
#325000
1!
16
0*
1K
1A
0>
0<
0:
12
1(
1B
0?
0D
#350000
0!
06
1*
#375000
1!
16
0*
0J
1H
0I
0K
1:
03
15
04
02
0'
1%
0&
0(
#400000
0!
06
1*
#425000
1!
16
0*
1K
1<
0:
12
1(
1D
#450000
0!
06
1*
#475000
1!
16
0*
1J
0K
1:
13
02
1'
0(
#500000
0!
06
1*
#525000
1!
16
0*
1K
1>
0<
0:
12
1(
1?
0D
#550000
0!
06
1*
#575000
1!
16
0*
0J
1I
0K
1:
03
14
02
0'
1&
0(
#600000
0!
06
1*
#625000
1!
16
0*
1K
1<
0:
12
1(
1D
#650000
0!
06
1*
#675000
1!
16
0*
1J
0K
1E
1:
13
02
1'
0(
1F
#700000
0!
06
1*
#725000
1!
16
0*
1G
1K
0E
1C
0A
0>
0<
0:
11
12
1)
1(
0F
0D
0B
0?
#750000
0!
06
1*
#775000
1!
16
0*
0G
0J
0H
0I
0K
0C
1:
01
03
05
04
02
0)
0'
0%
0&
0(
#800000
0!
06
1*
#825000
1!
16
0*
1K
1<
0:
12
1(
1D
#850000
0!
06
1*
#875000
1!
16
0*
1J
0K
1:
13
02
1'
0(
#900000
0!
06
1*
#925000
1!
16
0*
1K
1>
0<
0:
12
1(
1?
0D
#950000
0!
06
1*
#975000
1!
16
0*
0J
1I
0K
1:
03
14
02
0'
1&
0(
